<?xml version="1.0" encoding="UTF-8"?>
<testng-results skipped="0" failed="0" total="13" passed="13">
  <reporter-output>
  </reporter-output>
  <suite name="Command line suite" duration-ms="627489" started-at="2014-04-07T17:11:50Z" finished-at="2014-04-07T17:22:18Z">
    <groups>
    </groups>
    <test name="Command line test" duration-ms="627489" started-at="2014-04-07T17:11:50Z" finished-at="2014-04-07T17:22:18Z">
      <class name="org.sikuli.api.spotify_auto.InvalidUserNameLoginTest">
        <test-method status="PASS" signature="beforeClass()" name="beforeClass" is-config="true" duration-ms="0" started-at="2014-04-07T17:21:09Z" finished-at="2014-04-07T17:21:09Z">
        </test-method>
        <test-method status="PASS" signature="invalidUserNameLogin()" name="invalidUserNameLogin" duration-ms="66835" started-at="2014-04-07T17:21:09Z" finished-at="2014-04-07T17:22:16Z">
        </test-method>
        <test-method status="PASS" signature="afterClass()" name="afterClass" is-config="true" duration-ms="1438" started-at="2014-04-07T17:22:16Z" finished-at="2014-04-07T17:22:18Z">
        </test-method>
      </class>
      <class name="org.sikuli.api.spotify_auto.InvalidPasswordLoginTest">
        <test-method status="PASS" signature="beforeClass()" name="beforeClass" is-config="true" duration-ms="0" started-at="2014-04-07T17:20:02Z" finished-at="2014-04-07T17:20:02Z">
        </test-method>
        <test-method status="PASS" signature="invalidPwdLogin()" name="invalidPwdLogin" duration-ms="65788" started-at="2014-04-07T17:20:02Z" finished-at="2014-04-07T17:21:08Z">
        </test-method>
        <test-method status="PASS" signature="afterClass()" name="afterClass" is-config="true" duration-ms="1492" started-at="2014-04-07T17:21:08Z" finished-at="2014-04-07T17:21:09Z">
        </test-method>
      </class>
      <class name="org.sikuli.api.spotify_auto.SpotifyValidEndToEndByArtistNameTest">
        <test-method status="PASS" signature="beforeClass()" name="beforeClass" is-config="true" duration-ms="2" started-at="2014-04-07T17:13:25Z" finished-at="2014-04-07T17:13:25Z">
        </test-method>
        <test-method status="PASS" signature="validCredentialsLogin()" name="validCredentialsLogin" duration-ms="79664" started-at="2014-04-07T17:13:25Z" finished-at="2014-04-07T17:14:45Z">
        </test-method>
        <test-method status="PASS" signature="beforeClass()" name="beforeClass" is-config="true" duration-ms="1" started-at="2014-04-07T17:14:45Z" finished-at="2014-04-07T17:14:45Z">
        </test-method>
        <test-method status="PASS" signature="searchSong()" name="searchSong" duration-ms="16910" started-at="2014-04-07T17:14:45Z" depends-on-methods="org.sikuli.api.spotify_auto.SpotifyValidEndToEndByArtistNameTest.validCredentialsLogin" finished-at="2014-04-07T17:15:02Z">
        </test-method>
        <test-method status="PASS" signature="beforeClass()" name="beforeClass" is-config="true" duration-ms="0" started-at="2014-04-07T17:15:02Z" finished-at="2014-04-07T17:15:02Z">
        </test-method>
        <test-method status="PASS" signature="playSong()" name="playSong" duration-ms="15135" started-at="2014-04-07T17:15:02Z" depends-on-methods="org.sikuli.api.spotify_auto.SpotifyValidEndToEndByArtistNameTest.searchSong" finished-at="2014-04-07T17:15:17Z">
        </test-method>
        <test-method status="PASS" signature="tearDown()" name="tearDown" is-config="true" duration-ms="8333" started-at="2014-04-07T17:15:17Z" finished-at="2014-04-07T17:15:25Z">
        </test-method>
      </class>
      <class name="org.sikuli.api.spotify_auto.SearchInvalidSongTest">
        <test-method status="PASS" signature="beforeClass()" name="beforeClass" is-config="true" duration-ms="34" started-at="2014-04-07T17:11:50Z" finished-at="2014-04-07T17:11:50Z">
        </test-method>
        <test-method status="PASS" signature="validCredentialsLogin()" name="validCredentialsLogin" duration-ms="81749" started-at="2014-04-07T17:11:50Z" finished-at="2014-04-07T17:13:12Z">
        </test-method>
        <test-method status="PASS" signature="beforeClass()" name="beforeClass" is-config="true" duration-ms="0" started-at="2014-04-07T17:13:12Z" finished-at="2014-04-07T17:13:12Z">
        </test-method>
        <test-method status="PASS" signature="searchInvalidSong()" name="searchInvalidSong" duration-ms="5437" started-at="2014-04-07T17:13:12Z" depends-on-methods="org.sikuli.api.spotify_auto.SearchInvalidSongTest.validCredentialsLogin" finished-at="2014-04-07T17:13:17Z">
        </test-method>
        <test-method status="PASS" signature="tearDown()" name="tearDown" is-config="true" duration-ms="7876" started-at="2014-04-07T17:13:17Z" finished-at="2014-04-07T17:13:25Z">
        </test-method>
      </class>
      <class name="org.sikuli.api.spotify_auto.SpotifyValidEndToEndBySongTitleTest">
        <test-method status="PASS" signature="beforeClass()" name="beforeClass" is-config="true" duration-ms="1" started-at="2014-04-07T17:15:25Z" finished-at="2014-04-07T17:15:25Z">
        </test-method>
        <test-method status="PASS" signature="validCredentialsLogin()" name="validCredentialsLogin" duration-ms="79531" started-at="2014-04-07T17:15:25Z" finished-at="2014-04-07T17:16:45Z">
        </test-method>
        <test-method status="PASS" signature="beforeClass()" name="beforeClass" is-config="true" duration-ms="1" started-at="2014-04-07T17:16:45Z" finished-at="2014-04-07T17:16:45Z">
        </test-method>
        <test-method status="PASS" signature="searchSong()" name="searchSong" duration-ms="16122" started-at="2014-04-07T17:16:45Z" depends-on-methods="org.sikuli.api.spotify_auto.SpotifyValidEndToEndBySongTitleTest.validCredentialsLogin" finished-at="2014-04-07T17:17:01Z">
        </test-method>
        <test-method status="PASS" signature="beforeClass()" name="beforeClass" is-config="true" duration-ms="1" started-at="2014-04-07T17:17:01Z" finished-at="2014-04-07T17:17:01Z">
        </test-method>
        <test-method status="PASS" signature="playSong()" name="playSong" duration-ms="15103" started-at="2014-04-07T17:17:01Z" depends-on-methods="org.sikuli.api.spotify_auto.SpotifyValidEndToEndBySongTitleTest.searchSong" finished-at="2014-04-07T17:17:16Z">
        </test-method>
        <test-method status="PASS" signature="tearDown()" name="tearDown" is-config="true" duration-ms="9142" started-at="2014-04-07T17:17:16Z" finished-at="2014-04-07T17:17:25Z">
        </test-method>
      </class>
      <class name="org.sikuli.api.spotify_auto.SpotifyValidEndToEndSongWithSpecialCharsTest">
        <test-method status="PASS" signature="beforeClass()" name="beforeClass" is-config="true" duration-ms="1" started-at="2014-04-07T17:17:25Z" finished-at="2014-04-07T17:17:25Z">
        </test-method>
        <test-method status="PASS" signature="validCredentialsLogin()" name="validCredentialsLogin" duration-ms="80122" started-at="2014-04-07T17:17:25Z" finished-at="2014-04-07T17:18:45Z">
        </test-method>
        <test-method status="PASS" signature="beforeClass()" name="beforeClass" is-config="true" duration-ms="1" started-at="2014-04-07T17:18:45Z" finished-at="2014-04-07T17:18:45Z">
        </test-method>
        <test-method status="PASS" signature="searchSong()" name="searchSong" duration-ms="53393" started-at="2014-04-07T17:18:45Z" depends-on-methods="org.sikuli.api.spotify_auto.SpotifyValidEndToEndSongWithSpecialCharsTest.validCredentialsLogin" finished-at="2014-04-07T17:19:39Z">
        </test-method>
        <test-method status="PASS" signature="beforeClass()" name="beforeClass" is-config="true" duration-ms="1" started-at="2014-04-07T17:19:39Z" finished-at="2014-04-07T17:19:39Z">
        </test-method>
        <test-method status="PASS" signature="playSong()" name="playSong" duration-ms="14973" started-at="2014-04-07T17:19:39Z" depends-on-methods="org.sikuli.api.spotify_auto.SpotifyValidEndToEndSongWithSpecialCharsTest.searchSong" finished-at="2014-04-07T17:19:54Z">
        </test-method>
        <test-method status="PASS" signature="tearDown()" name="tearDown" is-config="true" duration-ms="8348" started-at="2014-04-07T17:19:54Z" finished-at="2014-04-07T17:20:02Z">
        </test-method>
      </class>
    </test>
  </suite>
</testng-results>
